{"@t":"2017-11-08T04:28:38.1207988Z","@m":"Logger created.","@i":"1d0a14b3","SourceContext":"APPLOG"}
{"@t":"2017-11-08T04:28:40.7537017Z","@m":"Entity Framework Core \"2.0.0-rtm-26452\" initialized '\"ApplicationDbContext\"' using provider '\"Microsoft.EntityFrameworkCore.SqlServer\"' with options: \"None\"","@i":"9958f5bb","version":"2.0.0-rtm-26452","contextType":"ApplicationDbContext","provider":"Microsoft.EntityFrameworkCore.SqlServer","options":"None","EventId":{"Id":100403,"Name":"Microsoft.EntityFrameworkCore.Infrastructure.ContextInitialized"},"SourceContext":"Microsoft.EntityFrameworkCore.Infrastructure"}
{"@t":"2017-11-08T04:29:03.4495337Z","@m":"Executed DbCommand (\"548\"ms) [Parameters=[\"\"], CommandType='Text', CommandTimeout='30']\"\r\n\"\"SELECT CASE\r\n    WHEN EXISTS (\r\n        SELECT 1\r\n        FROM [DegreeStatus] AS [d])\r\n    THEN CAST(1 AS BIT) ELSE CAST(0 AS BIT)\r\nEND\"","@i":"0723d8ff","elapsed":"548","parameters":"","commandType":"Text","commandTimeout":30,"newLine":"\r\n","commandText":"SELECT CASE\r\n    WHEN EXISTS (\r\n        SELECT 1\r\n        FROM [DegreeStatus] AS [d])\r\n    THEN CAST(1 AS BIT) ELSE CAST(0 AS BIT)\r\nEND","EventId":{"Id":200101,"Name":"Microsoft.EntityFrameworkCore.Database.Command.CommandExecuted"},"SourceContext":"Microsoft.EntityFrameworkCore.Database.Command"}
{"@t":"2017-11-08T04:29:03.5890379Z","@m":"Executed DbCommand (\"32\"ms) [Parameters=[\"\"], CommandType='Text', CommandTimeout='30']\"\r\n\"\"SELECT CASE\r\n    WHEN EXISTS (\r\n        SELECT 1\r\n        FROM [RequirementStatus] AS [r])\r\n    THEN CAST(1 AS BIT) ELSE CAST(0 AS BIT)\r\nEND\"","@i":"0723d8ff","elapsed":"32","parameters":"","commandType":"Text","commandTimeout":30,"newLine":"\r\n","commandText":"SELECT CASE\r\n    WHEN EXISTS (\r\n        SELECT 1\r\n        FROM [RequirementStatus] AS [r])\r\n    THEN CAST(1 AS BIT) ELSE CAST(0 AS BIT)\r\nEND","EventId":{"Id":200101,"Name":"Microsoft.EntityFrameworkCore.Database.Command.CommandExecuted"},"SourceContext":"Microsoft.EntityFrameworkCore.Database.Command"}
{"@t":"2017-11-08T04:29:03.6977811Z","@m":"Executed DbCommand (\"87\"ms) [Parameters=[\"\"], CommandType='Text', CommandTimeout='30']\"\r\n\"\"SELECT CASE\r\n    WHEN EXISTS (\r\n        SELECT 1\r\n        FROM [Student] AS [s])\r\n    THEN CAST(1 AS BIT) ELSE CAST(0 AS BIT)\r\nEND\"","@i":"0723d8ff","elapsed":"87","parameters":"","commandType":"Text","commandTimeout":30,"newLine":"\r\n","commandText":"SELECT CASE\r\n    WHEN EXISTS (\r\n        SELECT 1\r\n        FROM [Student] AS [s])\r\n    THEN CAST(1 AS BIT) ELSE CAST(0 AS BIT)\r\nEND","EventId":{"Id":200101,"Name":"Microsoft.EntityFrameworkCore.Database.Command.CommandExecuted"},"SourceContext":"Microsoft.EntityFrameworkCore.Database.Command"}
{"@t":"2017-11-08T04:29:03.7179365Z","@m":"Executed DbCommand (\"3\"ms) [Parameters=[\"\"], CommandType='Text', CommandTimeout='30']\"\r\n\"\"SELECT CASE\r\n    WHEN EXISTS (\r\n        SELECT 1\r\n        FROM [Degree] AS [d])\r\n    THEN CAST(1 AS BIT) ELSE CAST(0 AS BIT)\r\nEND\"","@i":"0723d8ff","elapsed":"3","parameters":"","commandType":"Text","commandTimeout":30,"newLine":"\r\n","commandText":"SELECT CASE\r\n    WHEN EXISTS (\r\n        SELECT 1\r\n        FROM [Degree] AS [d])\r\n    THEN CAST(1 AS BIT) ELSE CAST(0 AS BIT)\r\nEND","EventId":{"Id":200101,"Name":"Microsoft.EntityFrameworkCore.Database.Command.CommandExecuted"},"SourceContext":"Microsoft.EntityFrameworkCore.Database.Command"}
{"@t":"2017-11-08T04:29:03.9488521Z","@m":"Executed DbCommand (\"217\"ms) [Parameters=[\"\"], CommandType='Text', CommandTimeout='30']\"\r\n\"\"SELECT CASE\r\n    WHEN EXISTS (\r\n        SELECT 1\r\n        FROM [DegreeRequirement] AS [d])\r\n    THEN CAST(1 AS BIT) ELSE CAST(0 AS BIT)\r\nEND\"","@i":"0723d8ff","elapsed":"217","parameters":"","commandType":"Text","commandTimeout":30,"newLine":"\r\n","commandText":"SELECT CASE\r\n    WHEN EXISTS (\r\n        SELECT 1\r\n        FROM [DegreeRequirement] AS [d])\r\n    THEN CAST(1 AS BIT) ELSE CAST(0 AS BIT)\r\nEND","EventId":{"Id":200101,"Name":"Microsoft.EntityFrameworkCore.Database.Command.CommandExecuted"},"SourceContext":"Microsoft.EntityFrameworkCore.Database.Command"}
{"@t":"2017-11-08T04:29:03.9904799Z","@m":"Executed DbCommand (\"29\"ms) [Parameters=[\"\"], CommandType='Text', CommandTimeout='30']\"\r\n\"\"SELECT CASE\r\n    WHEN EXISTS (\r\n        SELECT 1\r\n        FROM [StudentDegreePlan] AS [s])\r\n    THEN CAST(1 AS BIT) ELSE CAST(0 AS BIT)\r\nEND\"","@i":"0723d8ff","elapsed":"29","parameters":"","commandType":"Text","commandTimeout":30,"newLine":"\r\n","commandText":"SELECT CASE\r\n    WHEN EXISTS (\r\n        SELECT 1\r\n        FROM [StudentDegreePlan] AS [s])\r\n    THEN CAST(1 AS BIT) ELSE CAST(0 AS BIT)\r\nEND","EventId":{"Id":200101,"Name":"Microsoft.EntityFrameworkCore.Database.Command.CommandExecuted"},"SourceContext":"Microsoft.EntityFrameworkCore.Database.Command"}
{"@t":"2017-11-08T04:29:04.0985997Z","@m":"Executed DbCommand (\"49\"ms) [Parameters=[\"\"], CommandType='Text', CommandTimeout='30']\"\r\n\"\"SELECT CASE\r\n    WHEN EXISTS (\r\n        SELECT 1\r\n        FROM [PlanTerm] AS [p])\r\n    THEN CAST(1 AS BIT) ELSE CAST(0 AS BIT)\r\nEND\"","@i":"0723d8ff","elapsed":"49","parameters":"","commandType":"Text","commandTimeout":30,"newLine":"\r\n","commandText":"SELECT CASE\r\n    WHEN EXISTS (\r\n        SELECT 1\r\n        FROM [PlanTerm] AS [p])\r\n    THEN CAST(1 AS BIT) ELSE CAST(0 AS BIT)\r\nEND","EventId":{"Id":200101,"Name":"Microsoft.EntityFrameworkCore.Database.Command.CommandExecuted"},"SourceContext":"Microsoft.EntityFrameworkCore.Database.Command"}
{"@t":"2017-11-08T04:29:04.5534940Z","@m":"Executed DbCommand (\"443\"ms) [Parameters=[\"\"], CommandType='Text', CommandTimeout='30']\"\r\n\"\"SELECT CASE\r\n    WHEN EXISTS (\r\n        SELECT 1\r\n        FROM [PlanTermRequirement] AS [p])\r\n    THEN CAST(1 AS BIT) ELSE CAST(0 AS BIT)\r\nEND\"","@i":"0723d8ff","elapsed":"443","parameters":"","commandType":"Text","commandTimeout":30,"newLine":"\r\n","commandText":"SELECT CASE\r\n    WHEN EXISTS (\r\n        SELECT 1\r\n        FROM [PlanTermRequirement] AS [p])\r\n    THEN CAST(1 AS BIT) ELSE CAST(0 AS BIT)\r\nEND","EventId":{"Id":200101,"Name":"Microsoft.EntityFrameworkCore.Database.Command.CommandExecuted"},"SourceContext":"Microsoft.EntityFrameworkCore.Database.Command"}
{"@t":"2017-11-08T04:29:07.1236341Z","@m":"Request starting HTTP/1.1 GET http://localhost:44388/  ","@i":"ca22a1cb","Protocol":"HTTP/1.1","Method":"GET","ContentType":null,"ContentLength":null,"Scheme":"http","Host":"localhost:44388","PathBase":"","Path":"/","QueryString":"","HostingRequestStartingLog":"Request starting HTTP/1.1 GET http://localhost:44388/  ","EventId":{"Id":1},"SourceContext":"Microsoft.AspNetCore.Hosting.Internal.WebHost","RequestId":"0HL96C4VJMD9K:00000001","RequestPath":"/"}
{"@t":"2017-11-08T04:29:08.0013305Z","@m":"Entity Framework Core \"2.0.0-rtm-26452\" initialized '\"ApplicationDbContext\"' using provider '\"Microsoft.EntityFrameworkCore.SqlServer\"' with options: \"None\"","@i":"9958f5bb","version":"2.0.0-rtm-26452","contextType":"ApplicationDbContext","provider":"Microsoft.EntityFrameworkCore.SqlServer","options":"None","EventId":{"Id":100403,"Name":"Microsoft.EntityFrameworkCore.Infrastructure.ContextInitialized"},"SourceContext":"Microsoft.EntityFrameworkCore.Infrastructure","RequestId":"0HL96C4VJMD9K:00000001","RequestPath":"/"}
{"@t":"2017-11-08T04:29:09.8397802Z","@m":"Executed DbCommand (\"927\"ms) [Parameters=[\"@__get_Item_0='?' (Size = 450)\"], CommandType='Text', CommandTimeout='30']\"\r\n\"\"SELECT TOP(1) [e].[Id], [e].[AccessFailedCount], [e].[ConcurrencyStamp], [e].[Email], [e].[EmailConfirmed], [e].[LockoutEnabled], [e].[LockoutEnd], [e].[NormalizedEmail], [e].[NormalizedUserName], [e].[PasswordHash], [e].[PhoneNumber], [e].[PhoneNumberConfirmed], [e].[SecurityStamp], [e].[TwoFactorEnabled], [e].[UserName]\r\nFROM [AspNetUsers] AS [e]\r\nWHERE [e].[Id] = @__get_Item_0\"","@i":"0723d8ff","elapsed":"927","parameters":"@__get_Item_0='?' (Size = 450)","commandType":"Text","commandTimeout":30,"newLine":"\r\n","commandText":"SELECT TOP(1) [e].[Id], [e].[AccessFailedCount], [e].[ConcurrencyStamp], [e].[Email], [e].[EmailConfirmed], [e].[LockoutEnabled], [e].[LockoutEnd], [e].[NormalizedEmail], [e].[NormalizedUserName], [e].[PasswordHash], [e].[PhoneNumber], [e].[PhoneNumberConfirmed], [e].[SecurityStamp], [e].[TwoFactorEnabled], [e].[UserName]\r\nFROM [AspNetUsers] AS [e]\r\nWHERE [e].[Id] = @__get_Item_0","EventId":{"Id":200101,"Name":"Microsoft.EntityFrameworkCore.Database.Command.CommandExecuted"},"SourceContext":"Microsoft.EntityFrameworkCore.Database.Command","RequestId":"0HL96C4VJMD9K:00000001","RequestPath":"/"}
{"@t":"2017-11-08T04:29:10.4039000Z","@m":"Executed DbCommand (\"115\"ms) [Parameters=[\"@__user_Id_0='?' (Size = 450)\"], CommandType='Text', CommandTimeout='30']\"\r\n\"\"SELECT [uc].[Id], [uc].[ClaimType], [uc].[ClaimValue], [uc].[UserId]\r\nFROM [AspNetUserClaims] AS [uc]\r\nWHERE [uc].[UserId] = @__user_Id_0\"","@i":"0723d8ff","elapsed":"115","parameters":"@__user_Id_0='?' (Size = 450)","commandType":"Text","commandTimeout":30,"newLine":"\r\n","commandText":"SELECT [uc].[Id], [uc].[ClaimType], [uc].[ClaimValue], [uc].[UserId]\r\nFROM [AspNetUserClaims] AS [uc]\r\nWHERE [uc].[UserId] = @__user_Id_0","EventId":{"Id":200101,"Name":"Microsoft.EntityFrameworkCore.Database.Command.CommandExecuted"},"SourceContext":"Microsoft.EntityFrameworkCore.Database.Command","RequestId":"0HL96C4VJMD9K:00000001","RequestPath":"/"}
{"@t":"2017-11-08T04:29:10.5539600Z","@m":"Executed DbCommand (\"28\"ms) [Parameters=[\"@__userId_0='?' (Size = 450)\"], CommandType='Text', CommandTimeout='30']\"\r\n\"\"SELECT [role].[Name]\r\nFROM [AspNetUserRoles] AS [userRole]\r\nINNER JOIN [AspNetRoles] AS [role] ON [userRole].[RoleId] = [role].[Id]\r\nWHERE [userRole].[UserId] = @__userId_0\"","@i":"0723d8ff","elapsed":"28","parameters":"@__userId_0='?' (Size = 450)","commandType":"Text","commandTimeout":30,"newLine":"\r\n","commandText":"SELECT [role].[Name]\r\nFROM [AspNetUserRoles] AS [userRole]\r\nINNER JOIN [AspNetRoles] AS [role] ON [userRole].[RoleId] = [role].[Id]\r\nWHERE [userRole].[UserId] = @__userId_0","EventId":{"Id":200101,"Name":"Microsoft.EntityFrameworkCore.Database.Command.CommandExecuted"},"SourceContext":"Microsoft.EntityFrameworkCore.Database.Command","RequestId":"0HL96C4VJMD9K:00000001","RequestPath":"/"}
{"@t":"2017-11-08T04:29:10.5734926Z","@m":"AuthenticationScheme: \"Identity.Application\" was successfully authenticated.","@i":"1805f3b3","AuthenticationScheme":"Identity.Application","EventId":{"Id":8},"SourceContext":"Microsoft.AspNetCore.Authentication.Cookies.CookieAuthenticationHandler","RequestId":"0HL96C4VJMD9K:00000001","RequestPath":"/"}
{"@t":"2017-11-08T04:29:12.7079412Z","@m":"Executing action method \"MyDegree.Controllers.HomeController.Index (MyDegree)\" with arguments (null) - ModelState is Valid","@i":"ba7f4ac2","ActionName":"MyDegree.Controllers.HomeController.Index (MyDegree)","Arguments":null,"ValidationState":"Valid","EventId":{"Id":1},"SourceContext":"Microsoft.AspNetCore.Mvc.Internal.ControllerActionInvoker","ActionId":"5be382e9-5d91-42aa-9f45-c022fbf8ad47","RequestId":"0HL96C4VJMD9K:00000001","RequestPath":"/"}
{"@t":"2017-11-08T04:29:27.2099355Z","@m":"Executing ViewResult, running view at path \"/Views/Home/Index.cshtml\".","@i":"9707eebe","Path":"/Views/Home/Index.cshtml","EventId":{"Id":1},"SourceContext":"Microsoft.AspNetCore.Mvc.ViewFeatures.Internal.ViewResultExecutor","ActionId":"5be382e9-5d91-42aa-9f45-c022fbf8ad47","ActionName":"MyDegree.Controllers.HomeController.Index (MyDegree)","RequestId":"0HL96C4VJMD9K:00000001","RequestPath":"/"}
{"@t":"2017-11-08T04:29:28.9539207Z","@m":"Executed action \"MyDegree.Controllers.HomeController.Index (MyDegree)\" in 16299.4199ms","@i":"afa2e885","ActionName":"MyDegree.Controllers.HomeController.Index (MyDegree)","ElapsedMilliseconds":16299.4199,"EventId":{"Id":2},"SourceContext":"Microsoft.AspNetCore.Mvc.Internal.ControllerActionInvoker","ActionId":"5be382e9-5d91-42aa-9f45-c022fbf8ad47","RequestId":"0HL96C4VJMD9K:00000001","RequestPath":"/"}
{"@t":"2017-11-08T04:29:28.9814509Z","@m":"Request finished in 22093.7119ms 200 text/html; charset=utf-8","@i":"791a596a","ElapsedMilliseconds":22093.711900000002,"StatusCode":200,"ContentType":"text/html; charset=utf-8","HostingRequestFinishedLog":"Request finished in 22093.7119ms 200 text/html; charset=utf-8","EventId":{"Id":2},"SourceContext":"Microsoft.AspNetCore.Hosting.Internal.WebHost","RequestId":"0HL96C4VJMD9K:00000001","RequestPath":"/"}
{"@t":"2017-11-08T04:29:29.4455714Z","@m":"Request starting HTTP/1.1 GET http://localhost:44388/images/banner2.svg  ","@i":"ca22a1cb","Protocol":"HTTP/1.1","Method":"GET","ContentType":null,"ContentLength":null,"Scheme":"http","Host":"localhost:44388","PathBase":"","Path":"/images/banner2.svg","QueryString":"","HostingRequestStartingLog":"Request starting HTTP/1.1 GET http://localhost:44388/images/banner2.svg  ","EventId":{"Id":1},"SourceContext":"Microsoft.AspNetCore.Hosting.Internal.WebHost","RequestId":"0HL96C4VJMD9K:00000002","RequestPath":"/images/banner2.svg"}
{"@t":"2017-11-08T04:29:29.5390770Z","@m":"Request starting HTTP/1.1 GET http://localhost:44388/images/banner4.svg  ","@i":"ca22a1cb","Protocol":"HTTP/1.1","Method":"GET","ContentType":null,"ContentLength":null,"Scheme":"http","Host":"localhost:44388","PathBase":"","Path":"/images/banner4.svg","QueryString":"","HostingRequestStartingLog":"Request starting HTTP/1.1 GET http://localhost:44388/images/banner4.svg  ","EventId":{"Id":1},"SourceContext":"Microsoft.AspNetCore.Hosting.Internal.WebHost","RequestId":"0HL96C4VJMD9M:00000001","RequestPath":"/images/banner4.svg"}
{"@t":"2017-11-08T04:29:29.6819384Z","@m":"Request starting HTTP/1.1 GET http://localhost:44388/js/site.js?v=7mkNbU1tgQL1bUeZe3j2R151hKLhLDKO4BBaR-iqCy0  ","@i":"ca22a1cb","Protocol":"HTTP/1.1","Method":"GET","ContentType":null,"ContentLength":null,"Scheme":"http","Host":"localhost:44388","PathBase":"","Path":"/js/site.js","QueryString":"?v=7mkNbU1tgQL1bUeZe3j2R151hKLhLDKO4BBaR-iqCy0","HostingRequestStartingLog":"Request starting HTTP/1.1 GET http://localhost:44388/js/site.js?v=7mkNbU1tgQL1bUeZe3j2R151hKLhLDKO4BBaR-iqCy0  ","EventId":{"Id":1},"SourceContext":"Microsoft.AspNetCore.Hosting.Internal.WebHost","RequestId":"0HL96C4VJMD9N:00000001","RequestPath":"/js/site.js"}
{"@t":"2017-11-08T04:29:29.7080945Z","@m":"Request starting HTTP/1.1 GET http://localhost:44388/images/banner1.svg  ","@i":"ca22a1cb","Protocol":"HTTP/1.1","Method":"GET","ContentType":null,"ContentLength":null,"Scheme":"http","Host":"localhost:44388","PathBase":"","Path":"/images/banner1.svg","QueryString":"","HostingRequestStartingLog":"Request starting HTTP/1.1 GET http://localhost:44388/images/banner1.svg  ","EventId":{"Id":1},"SourceContext":"Microsoft.AspNetCore.Hosting.Internal.WebHost","RequestId":"0HL96C4VJMD9P:00000001","RequestPath":"/images/banner1.svg"}
{"@t":"2017-11-08T04:29:29.8034708Z","@m":"Request starting HTTP/1.1 GET http://localhost:44388/images/banner3.svg  ","@i":"ca22a1cb","Protocol":"HTTP/1.1","Method":"GET","ContentType":null,"ContentLength":null,"Scheme":"http","Host":"localhost:44388","PathBase":"","Path":"/images/banner3.svg","QueryString":"","HostingRequestStartingLog":"Request starting HTTP/1.1 GET http://localhost:44388/images/banner3.svg  ","EventId":{"Id":1},"SourceContext":"Microsoft.AspNetCore.Hosting.Internal.WebHost","RequestId":"0HL96C4VJMD9O:00000001","RequestPath":"/images/banner3.svg"}
{"@t":"2017-11-08T04:29:29.9431984Z","@m":"The file \"/js/site.js\" was not modified","@i":"f1f8d725","Path":"/js/site.js","EventId":{"Id":6},"SourceContext":"Microsoft.AspNetCore.StaticFiles.StaticFileMiddleware","RequestId":"0HL96C4VJMD9N:00000001","RequestPath":"/js/site.js"}
{"@t":"2017-11-08T04:29:30.0623068Z","@m":"The file \"/images/banner2.svg\" was not modified","@i":"f1f8d725","Path":"/images/banner2.svg","EventId":{"Id":6},"SourceContext":"Microsoft.AspNetCore.StaticFiles.StaticFileMiddleware","RequestId":"0HL96C4VJMD9K:00000002","RequestPath":"/images/banner2.svg"}
{"@t":"2017-11-08T04:29:30.0768106Z","@m":"The file \"/images/banner1.svg\" was not modified","@i":"f1f8d725","Path":"/images/banner1.svg","EventId":{"Id":6},"SourceContext":"Microsoft.AspNetCore.StaticFiles.StaticFileMiddleware","RequestId":"0HL96C4VJMD9P:00000001","RequestPath":"/images/banner1.svg"}
{"@t":"2017-11-08T04:29:30.0886258Z","@m":"The file \"/images/banner3.svg\" was not modified","@i":"f1f8d725","Path":"/images/banner3.svg","EventId":{"Id":6},"SourceContext":"Microsoft.AspNetCore.StaticFiles.StaticFileMiddleware","RequestId":"0HL96C4VJMD9O:00000001","RequestPath":"/images/banner3.svg"}
{"@t":"2017-11-08T04:29:30.1185842Z","@m":"The file \"/images/banner4.svg\" was not modified","@i":"f1f8d725","Path":"/images/banner4.svg","EventId":{"Id":6},"SourceContext":"Microsoft.AspNetCore.StaticFiles.StaticFileMiddleware","RequestId":"0HL96C4VJMD9M:00000001","RequestPath":"/images/banner4.svg"}
{"@t":"2017-11-08T04:29:30.2957592Z","@m":"Request finished in 708.4493ms 304 image/svg+xml","@i":"791a596a","ElapsedMilliseconds":708.4493,"StatusCode":304,"ContentType":"image/svg+xml","HostingRequestFinishedLog":"Request finished in 708.4493ms 304 image/svg+xml","EventId":{"Id":2},"SourceContext":"Microsoft.AspNetCore.Hosting.Internal.WebHost","RequestId":"0HL96C4VJMD9O:00000001","RequestPath":"/images/banner3.svg"}
{"@t":"2017-11-08T04:29:30.3645177Z","@m":"Request finished in 664.4318ms 304 application/javascript","@i":"791a596a","ElapsedMilliseconds":664.43180000000007,"StatusCode":304,"ContentType":"application/javascript","HostingRequestFinishedLog":"Request finished in 664.4318ms 304 application/javascript","EventId":{"Id":2},"SourceContext":"Microsoft.AspNetCore.Hosting.Internal.WebHost","RequestId":"0HL96C4VJMD9N:00000001","RequestPath":"/js/site.js"}
{"@t":"2017-11-08T04:29:30.3908937Z","@m":"Request finished in 693.6642ms 304 image/svg+xml","@i":"791a596a","ElapsedMilliseconds":693.6642,"StatusCode":304,"ContentType":"image/svg+xml","HostingRequestFinishedLog":"Request finished in 693.6642ms 304 image/svg+xml","EventId":{"Id":2},"SourceContext":"Microsoft.AspNetCore.Hosting.Internal.WebHost","RequestId":"0HL96C4VJMD9P:00000001","RequestPath":"/images/banner1.svg"}
{"@t":"2017-11-08T04:29:30.5333887Z","@m":"Request starting HTTP/1.1 GET http://localhost:44388/lib/bootstrap/dist/css/bootstrap.css  ","@i":"ca22a1cb","Protocol":"HTTP/1.1","Method":"GET","ContentType":null,"ContentLength":null,"Scheme":"http","Host":"localhost:44388","PathBase":"","Path":"/lib/bootstrap/dist/css/bootstrap.css","QueryString":"","HostingRequestStartingLog":"Request starting HTTP/1.1 GET http://localhost:44388/lib/bootstrap/dist/css/bootstrap.css  ","EventId":{"Id":1},"SourceContext":"Microsoft.AspNetCore.Hosting.Internal.WebHost","RequestId":"0HL96C4VJMD9L:00000001","RequestPath":"/lib/bootstrap/dist/css/bootstrap.css"}
{"@t":"2017-11-08T04:29:30.5807405Z","@m":"Request finished in 828.7222ms 304 image/svg+xml","@i":"791a596a","ElapsedMilliseconds":828.7222,"StatusCode":304,"ContentType":"image/svg+xml","HostingRequestFinishedLog":"Request finished in 828.7222ms 304 image/svg+xml","EventId":{"Id":2},"SourceContext":"Microsoft.AspNetCore.Hosting.Internal.WebHost","RequestId":"0HL96C4VJMD9K:00000002","RequestPath":"/images/banner2.svg"}
{"@t":"2017-11-08T04:29:30.8862629Z","@m":"Request starting HTTP/1.1 GET http://localhost:44388/lib/jquery/dist/jquery.js  ","@i":"ca22a1cb","Protocol":"HTTP/1.1","Method":"GET","ContentType":null,"ContentLength":null,"Scheme":"http","Host":"localhost:44388","PathBase":"","Path":"/lib/jquery/dist/jquery.js","QueryString":"","HostingRequestStartingLog":"Request starting HTTP/1.1 GET http://localhost:44388/lib/jquery/dist/jquery.js  ","EventId":{"Id":1},"SourceContext":"Microsoft.AspNetCore.Hosting.Internal.WebHost","RequestId":"0HL96C4VJMD9Q:00000001","RequestPath":"/lib/jquery/dist/jquery.js"}
{"@t":"2017-11-08T04:29:30.9044195Z","@m":"Request finished in 784.5886ms 304 image/svg+xml","@i":"791a596a","ElapsedMilliseconds":784.5886,"StatusCode":304,"ContentType":"image/svg+xml","HostingRequestFinishedLog":"Request finished in 784.5886ms 304 image/svg+xml","EventId":{"Id":2},"SourceContext":"Microsoft.AspNetCore.Hosting.Internal.WebHost","RequestId":"0HL96C4VJMD9M:00000001","RequestPath":"/images/banner4.svg"}
{"@t":"2017-11-08T04:29:31.0443477Z","@m":"Request starting HTTP/1.1 GET http://localhost:44388/css/site.css  ","@i":"ca22a1cb","Protocol":"HTTP/1.1","Method":"GET","ContentType":null,"ContentLength":null,"Scheme":"http","Host":"localhost:44388","PathBase":"","Path":"/css/site.css","QueryString":"","HostingRequestStartingLog":"Request starting HTTP/1.1 GET http://localhost:44388/css/site.css  ","EventId":{"Id":1},"SourceContext":"Microsoft.AspNetCore.Hosting.Internal.WebHost","RequestId":"0HL96C4VJMD9R:00000001","RequestPath":"/css/site.css"}
{"@t":"2017-11-08T04:29:31.0886511Z","@m":"The file \"/lib/bootstrap/dist/css/bootstrap.css\" was not modified","@i":"f1f8d725","Path":"/lib/bootstrap/dist/css/bootstrap.css","EventId":{"Id":6},"SourceContext":"Microsoft.AspNetCore.StaticFiles.StaticFileMiddleware","RequestId":"0HL96C4VJMD9L:00000001","RequestPath":"/lib/bootstrap/dist/css/bootstrap.css"}
{"@t":"2017-11-08T04:29:31.2336493Z","@m":"The file \"/lib/jquery/dist/jquery.js\" was not modified","@i":"f1f8d725","Path":"/lib/jquery/dist/jquery.js","EventId":{"Id":6},"SourceContext":"Microsoft.AspNetCore.StaticFiles.StaticFileMiddleware","RequestId":"0HL96C4VJMD9Q:00000001","RequestPath":"/lib/jquery/dist/jquery.js"}
{"@t":"2017-11-08T04:29:31.3385900Z","@m":"Request finished in 685.3678ms 304 text/css","@i":"791a596a","ElapsedMilliseconds":685.3678,"StatusCode":304,"ContentType":"text/css","HostingRequestFinishedLog":"Request finished in 685.3678ms 304 text/css","EventId":{"Id":2},"SourceContext":"Microsoft.AspNetCore.Hosting.Internal.WebHost","RequestId":"0HL96C4VJMD9L:00000001","RequestPath":"/lib/bootstrap/dist/css/bootstrap.css"}
{"@t":"2017-11-08T04:29:31.4496147Z","@m":"The file \"/css/site.css\" was not modified","@i":"f1f8d725","Path":"/css/site.css","EventId":{"Id":6},"SourceContext":"Microsoft.AspNetCore.StaticFiles.StaticFileMiddleware","RequestId":"0HL96C4VJMD9R:00000001","RequestPath":"/css/site.css"}
{"@t":"2017-11-08T04:29:31.8870206Z","@m":"Request finished in 797.0947ms 304 application/javascript","@i":"791a596a","ElapsedMilliseconds":797.0947,"StatusCode":304,"ContentType":"application/javascript","HostingRequestFinishedLog":"Request finished in 797.0947ms 304 application/javascript","EventId":{"Id":2},"SourceContext":"Microsoft.AspNetCore.Hosting.Internal.WebHost","RequestId":"0HL96C4VJMD9Q:00000001","RequestPath":"/lib/jquery/dist/jquery.js"}
{"@t":"2017-11-08T04:29:31.9081579Z","@m":"Request starting HTTP/1.1 GET http://localhost:44388/lib/bootstrap/dist/js/bootstrap.js  ","@i":"ca22a1cb","Protocol":"HTTP/1.1","Method":"GET","ContentType":null,"ContentLength":null,"Scheme":"http","Host":"localhost:44388","PathBase":"","Path":"/lib/bootstrap/dist/js/bootstrap.js","QueryString":"","HostingRequestStartingLog":"Request starting HTTP/1.1 GET http://localhost:44388/lib/bootstrap/dist/js/bootstrap.js  ","EventId":{"Id":1},"SourceContext":"Microsoft.AspNetCore.Hosting.Internal.WebHost","RequestId":"0HL96C4VJMD9S:00000001","RequestPath":"/lib/bootstrap/dist/js/bootstrap.js"}
{"@t":"2017-11-08T04:29:32.0712785Z","@m":"Request finished in 948.4325ms 304 text/css","@i":"791a596a","ElapsedMilliseconds":948.4325,"StatusCode":304,"ContentType":"text/css","HostingRequestFinishedLog":"Request finished in 948.4325ms 304 text/css","EventId":{"Id":2},"SourceContext":"Microsoft.AspNetCore.Hosting.Internal.WebHost","RequestId":"0HL96C4VJMD9R:00000001","RequestPath":"/css/site.css"}
{"@t":"2017-11-08T04:29:32.1058530Z","@m":"The file \"/lib/bootstrap/dist/js/bootstrap.js\" was not modified","@i":"f1f8d725","Path":"/lib/bootstrap/dist/js/bootstrap.js","EventId":{"Id":6},"SourceContext":"Microsoft.AspNetCore.StaticFiles.StaticFileMiddleware","RequestId":"0HL96C4VJMD9S:00000001","RequestPath":"/lib/bootstrap/dist/js/bootstrap.js"}
{"@t":"2017-11-08T04:29:32.1503094Z","@m":"Request finished in 1061.8831ms 304 application/javascript","@i":"791a596a","ElapsedMilliseconds":1061.8831,"StatusCode":304,"ContentType":"application/javascript","HostingRequestFinishedLog":"Request finished in 1061.8831ms 304 application/javascript","EventId":{"Id":2},"SourceContext":"Microsoft.AspNetCore.Hosting.Internal.WebHost","RequestId":"0HL96C4VJMD9S:00000001","RequestPath":"/lib/bootstrap/dist/js/bootstrap.js"}
{"@t":"2017-11-08T04:29:34.0842894Z","@m":"Request starting HTTP/1.1 GET http://localhost:44388/lib/bootstrap/dist/fonts/glyphicons-halflings-regular.woff2  ","@i":"ca22a1cb","Protocol":"HTTP/1.1","Method":"GET","ContentType":null,"ContentLength":null,"Scheme":"http","Host":"localhost:44388","PathBase":"","Path":"/lib/bootstrap/dist/fonts/glyphicons-halflings-regular.woff2","QueryString":"","HostingRequestStartingLog":"Request starting HTTP/1.1 GET http://localhost:44388/lib/bootstrap/dist/fonts/glyphicons-halflings-regular.woff2  ","EventId":{"Id":1},"SourceContext":"Microsoft.AspNetCore.Hosting.Internal.WebHost","RequestId":"0HL96C4VJMD9N:00000002","RequestPath":"/lib/bootstrap/dist/fonts/glyphicons-halflings-regular.woff2"}
{"@t":"2017-11-08T04:29:34.1173784Z","@m":"The file \"/lib/bootstrap/dist/fonts/glyphicons-halflings-regular.woff2\" was not modified","@i":"f1f8d725","Path":"/lib/bootstrap/dist/fonts/glyphicons-halflings-regular.woff2","EventId":{"Id":6},"SourceContext":"Microsoft.AspNetCore.StaticFiles.StaticFileMiddleware","RequestId":"0HL96C4VJMD9N:00000002","RequestPath":"/lib/bootstrap/dist/fonts/glyphicons-halflings-regular.woff2"}
{"@t":"2017-11-08T04:29:34.1577390Z","@m":"Request finished in 171.2803ms 304 font/woff2","@i":"791a596a","ElapsedMilliseconds":171.2803,"StatusCode":304,"ContentType":"font/woff2","HostingRequestFinishedLog":"Request finished in 171.2803ms 304 font/woff2","EventId":{"Id":2},"SourceContext":"Microsoft.AspNetCore.Hosting.Internal.WebHost","RequestId":"0HL96C4VJMD9N:00000002","RequestPath":"/lib/bootstrap/dist/fonts/glyphicons-halflings-regular.woff2"}
